<?xml version="1.0" standalone="no"?>
<!DOCTYPE svg PUBLIC "-//W3C//DTD SVG 20010904//EN"
 "http://www.w3.org/TR/2001/REC-SVG-20010904/DTD/svg10.dtd">
<svg version="1.0" xmlns="http://www.w3.org/2000/svg"
 width="600.000000pt" height="480.000000pt" viewBox="0 0 600.000000 480.000000"
 preserveAspectRatio="xMidYMid meet">
<metadata>
Created by potrace 1.15, written by Peter Selinger 2001-2017
</metadata>
<g transform="translate(0.000000,480.000000) scale(0.100000,-0.100000)"
fill="#000000" stroke="none">
<path d="M2862 4769 c-69 -34 -104 -71 -138 -144 l-24 -50 0 -652 c0 -621 1
-653 18 -653 44 0 207 -56 307 -105 161 -80 324 -210 422 -338 l22 -28 31 23
c30 22 41 23 228 26 219 4 261 -4 296 -51 20 -27 21 -41 21 -247 0 -206 -1
-220 -21 -247 -29 -40 -74 -52 -191 -52 -57 -1 -103 -3 -103 -5 0 -2 16 -46
35 -97 24 -66 42 -100 61 -114 185 -136 296 -298 343 -495 26 -108 37 -354 22
-512 -16 -177 -76 -338 -172 -459 l-29 -37 0 -169 c0 -178 -11 -246 -50 -323
l-20 -40 992 0 c956 0 994 1 1022 19 15 10 37 32 47 47 18 28 19 92 19 2270
l0 2241 -31 61 c-34 69 -71 104 -144 138 l-50 24 -1426 0 -1426 0 -61 -31z
m1107 -732 c19 -7 44 -25 55 -40 20 -27 21 -41 21 -247 0 -305 6 -299 -295
-299 -203 0 -241 7 -274 52 -20 27 -21 41 -21 247 0 305 -6 299 295 299 118 0
197 -4 219 -12z m1200 0 c19 -7 44 -25 55 -40 20 -27 21 -41 21 -247 0 -305 6
-299 -295 -299 -203 0 -241 7 -274 52 -20 27 -21 41 -21 247 0 305 -6 299 295
299 118 0 197 -4 219 -12z m0 -1200 c19 -7 44 -25 55 -40 20 -27 21 -41 21
-247 0 -305 6 -299 -295 -299 -203 0 -241 7 -274 52 -20 27 -21 41 -21 247 0
305 -6 299 295 299 118 0 197 -4 219 -12z m0 -1200 c19 -7 44 -25 55 -40 20
-27 21 -41 21 -247 0 -305 6 -299 -295 -299 -203 0 -241 7 -274 52 -20 27 -21
41 -21 247 0 305 -6 299 295 299 118 0 197 -4 219 -12z"/>
<path d="M1215 2983 c-271 -58 -500 -230 -629 -475 -25 -45 -81 -182 -124
-303 -132 -363 -125 -349 -189 -385 -117 -66 -204 -173 -248 -303 -24 -72 -25
-86 -25 -304 0 -252 6 -289 63 -397 17 -32 55 -84 84 -115 l53 -56 0 -220 c0
-210 1 -222 24 -270 28 -62 101 -128 158 -144 29 -8 109 -11 243 -9 223 3 242
8 308 75 67 67 72 85 75 315 l3 208 939 0 939 0 3 -207 c3 -231 8 -249 75
-316 66 -67 85 -72 308 -75 134 -2 214 1 243 9 57 16 130 82 158 144 23 48 24
60 24 270 l0 220 53 56 c59 63 107 146 131 228 23 79 23 484 0 562 -41 137
-136 259 -259 330 l-59 35 -107 291 c-58 160 -119 315 -134 345 -128 247 -340
415 -609 483 l-99 25 -666 -1 c-551 0 -678 -3 -736 -16z m1312 -592 c125 -18
240 -96 297 -201 24 -44 136 -359 136 -382 0 -4 -454 -8 -1010 -8 -555 0
-1010 4 -1010 8 0 23 112 338 136 382 55 101 173 183 288 200 74 11 1089 11
1163 1z m-1719 -1001 c70 -36 177 -143 210 -212 30 -60 29 -122 -2 -152 -33
-34 -118 -49 -255 -45 -105 4 -120 7 -163 32 -69 40 -102 101 -102 186 1 176
154 269 312 191z m2453 19 c92 -31 142 -105 143 -210 0 -85 -33 -146 -102
-186 -43 -25 -58 -28 -163 -32 -203 -6 -279 24 -279 110 0 60 33 121 108 200
102 108 201 148 293 118z"/>
</g>
</svg>
