za debagovanje
tail -f protected/runtime/eventRelay.log

config
'repManager' => [
        'class' => 'application.modules.files.extensions.SIMARepManager.SIMARepManager',
        'use_new_repmanager' => true,
//        'local_repmanager' => [
//            'address' => 'http://192.168.17.130/repmanager/index.php',
//            'user_token' => 'qwe',
//            'admin_host' => 'localhost',
//            'admin_port' => '5432',
//            'admin_dbname' => 'repmanager',
//            'admin_username' => 'postgres',
//            'admin_password' => 'postgres',
//            'name' => 'sima4'
//        ]
    ],

mozda
/var/www/html/sima4/protected/modules/files/extensions/SIMARepManager/models/RepManager.php
public function getAddressParsed($local_addr=false)
    {
        $result = $this->address;
        
        if(strpos($result, RepManager::$SIMA_ADDRESS_MACRO) !== false)
        {
            $to_replace_with =  Yii::app()->getBaseUrl(true);
            if($local_addr === true)
            {
                $to_replace_with = Yii::app()->repManager->local_addr;
            }
            
            $result = str_replace(RepManager::$SIMA_ADDRESS_MACRO, $to_replace_with, $result);
        }
                
        return $result;
    }
